…
Figure 2: As above but with specific boxplots for each peer.

There are clearly different strategies, or perhaps roles, for each different MP. Baroness Hayter makes a similar number of speeches to Tebbit and Hannay, but her speeches are generally longer (none being exceptionally short or long). Lord Taylor, in contrast has an incredibly tight distribution of very short speeches. This is telling- he is in fact the whip of the Conservative party, so his speeches consist exclusively of short rebukes. Lord Howard, a eurosceptic, speaks as a contrarian to many of the amendments moved by other MPs, leading to a large number of short arguments. Lord Bridges, who shows the most variation in speech lengths, was the Government’s secretary for DxEU.

As we can see, even these raw numbers of words tell a story. But now we will move onto…

The text itself.

Boring definitions: Each text is composed of words. People who research text mining and apply this in natural language processing (NLP) refer to each body of text as a document. Think different newspaper articles, different books by an author. We could treat all of these as documents. Corpus is the word used to refer to a collection of documents. Now let’s think about scale. There are lots of Hansards about Brexit. So we could (and later will) make a corpus of Hansard documents. But here, I have chosen to focus on what can be gleaned from a single debate. For our purposes, we will treat speeches as each document, and the corpus will be the collection of speeches in the Hansard.

## # A tibble: 16,340 x 4
##    speech_id word         n speech_total
##        <int> <chr>    <int>        <int>
##  1       106 eu          27          545
##  2       109 euratom     26          480
##  3       244 european    23          225
##  4       148 women       22          566
##  5        32 eu          20          307
##  6       148 rights      20          566
##  7         1 eu          19          437
##  8       124 euratom     19          344
##  9       132 euratom     18          272
## 10       228 devolved    18          409
## # … with 16,330 more rows
…
